{
  "Actor": {
    "types": ["character"],
    "character": {
      "stats": {
        "str": 0,
        "spd": 0,
        "int": 0,
        "cmb": 0
      },
      "saves": {
        "sanity": 0,
        "fear": 0,
        "body": 0,
        "armor": 0
      },
      "health": 0,
      "max_health": 0,
      "stress": 2,
      "resolve": 0,
      "class": "",
      "rank": "",
      "credits": "0",
      "rollmod": 0,
      "skills": {
        "trained": [
          "linguistics",
          "biology",
          "first_aid",
          "hydroponics",
          "geology",
          "zero-g",
          "scavenging",
          "heavy_machinery",
          "computers",
          "mechanical_repair",
          "driving",
          "piloting",
          "mathematics",
          "art",
          "archaeology",
          "theology",
          "military_training",
          "rimwise",
          "athletics",
          "chemistry"
        ],
        "expert": [

        ],
        "master": []
      },
      "attributes": {},
      "owned": {
        "items": [],
        "weapons": []

      }
    },
    "monster": {
      "stats": {
        "brawn" : 0,
        "wits": 0,
        "will": 0
      },
      "description": "",
      "stats": {},
      "owned": {
        "items": [],
        "weapons": []
      }
    }
  },

  "Item": {
    "types": ["weapon", "gear", "item", "skill"],
    "name" : "",
    "templates": {
      "itemDescription": {
        "description": "",
        "notes": ""
      },
      "physicalItem": {
        "quantity": 1,
        "price": 0,
        "features": {}
      },
      "equippable": {
        "equippable": true,
        "equipped": false,
        "location": "backpack"
      },
      "modifier": {
          "stat": "",
          "value": 0
      }
    },
    "item": {
      "templates": ["itemDescription", "physicalItem", "equippable"]
    },
    "skill": {
      "templates" : ["itemDescription"],
      "level": "",
      "modifier": 0

    },
    "weapon": {
      "templates": ["itemDescription", "physicalItem", "equippable"],
      "damage" : "",
      "critical": "",
      "short": "",
      "medium": "",
      "long": "",
      "shots": ""
    }

  }
}
